Regresión con rezago 1
…
1.2 Lectura de datos

load("./Data/datos_finales.RData")
load("./Data/datos_AOD_HR.Rdata")
poblacion <- read_xlsx("./Data/Poblacion_Nacional.xlsx")
datos_finales

# A tibble: 84,483 × 29
   canton   year epi.week egreso date       CCanton Poblacion Tmax_max Tmax_mean
   <chr>   <dbl>    <dbl>  <dbl> <date>       <dbl>     <dbl>    <dbl>     <dbl>
 1 abanga…  2000        1      1 2000-01-03     507    16531      34.1      30.5
 2 abanga…  2000        2      1 2000-01-10     507    16536.     34.0      30.8
 3 abanga…  2000        3      2 2000-01-17     507    16541.     32.7      30.0
 4 abanga…  2000        4      2 2000-01-24     507    16545.     34.9      31.8
 5 abanga…  2000        5      0 2000-01-31     507    16550.     35.2      32.3
 6 abanga…  2000        6      1 2000-02-07     507    16555.     34.7      32.1
 7 abanga…  2000        7      1 2000-02-14     507    16560.     36.3      33.4
 8 abanga…  2000        8      1 2000-02-21     507    16564.     35.4      32.4
 9 abanga…  2000        9      1 2000-02-28     507    16569.     35.3      31.5
10 abanga…  2000       10      1 2000-03-06     507    16574.     33.6      31.3
# ℹ 84,473 more rows
# ℹ 20 more variables: Tmax_min <dbl>, n_Tmax_Q3 <dbl>, Tmin_min <dbl>,
#   Tmin_mean <dbl>, Tmin_max <dbl>, n_Tmin_Q1 <dbl>, amplitude_max_max <dbl>,
#   amplitude_max_mean <dbl>, amplitude_max_min <dbl>, amplitude_min_max <dbl>,
#   amplitude_min_mean <dbl>, amplitude_min_min <dbl>, n_amplitude_Q3 <dbl>,
#   n_amplitude_P90 <dbl>, precip_max_max <dbl>, precip_max_mean <dbl>,
#   precip_max_min <dbl>, precip_mean_mean <dbl>, n_precip_max_Q3 <dbl>, …
…
